%YAML 1.1
%TAG !u! tag:unity3d.com,2011:
--- !u!114 &11400000
MonoBehaviour:
  m_ObjectHideFlags: 0
  m_CorrespondingSourceObject: {fileID: 0}
  m_PrefabInstance: {fileID: 0}
  m_PrefabAsset: {fileID: 0}
  m_GameObject: {fileID: 0}
  m_Enabled: 1
  m_EditorHideFlags: 0
  m_Script: {fileID: 11500000, guid: eb735f81f9dc00644982e33b8a62125d, type: 3}
  m_Name: "\u041A\u043E\u0440\u0430\u0431\u043B\u044C \u0432 \u0431\u0443\u0442\u044B\u043B\u043A\u0435"
  m_EditorClassIdentifier: 
  painting: {fileID: 5022602860645237092, guid: d53ddc4068e741a438c30731d4fe35af,
    type: 3}
  isPainted: 0
  paintingSetting:
    LittleFragmentArea: 10
    BezierSegments: 2
    ElipseSegments: 14
    BorderWidth: 1
  Borders: []
